<?xml version="1.0" encoding="utf-8"?>
<!-- Generator: Adobe Illustrator 18.1.1, SVG Export Plug-In . SVG Version: 6.00 Build 0)  -->
<svg version="1.1" id="Layer_1" xmlns="http://www.w3.org/2000/svg" xmlns:xlink="http://www.w3.org/1999/xlink" x="0px" y="0px"
	 viewBox="0 0 44 44" enable-background="new 0 0 44 44" xml:space="preserve">
<rect fill="#27425C" width="44" height="44"/>
<path fill="#FFFFFF" d="M16.7,18.3H19v-2.2c0-1,0-2.5,0.7-3.4c0.7-1,1.8-1.7,3.5-1.7c2.9,0,4.1,0.4,4.1,0.4l-0.6,3.4
	c0,0-0.9-0.3-1.8-0.3c-0.9,0-1.7,0.3-1.7,1.2v2.6h3.6l-0.3,3.3h-3.4V33H19V21.6h-2.3V18.3z"/>
</svg>
