<?xml version="1.0" encoding="utf-8"?>
<!-- Generator: Adobe Illustrator 18.1.1, SVG Export Plug-In . SVG Version: 6.00 Build 0)  -->
<svg version="1.1" id="Layer_1" xmlns="http://www.w3.org/2000/svg" xmlns:xlink="http://www.w3.org/1999/xlink" x="0px" y="0px"
	 viewBox="0 0 300 140" enable-background="new 0 0 300 140" xml:space="preserve">
<g>
	<path fill="#712D3D" d="M10.4,39.8h0.8c2.2,0,3-1.1,3.1-6.7c0.1-6.3,0.5-12.6,0.5-19.2c0-3-0.9-3.7-3.3-3.7h-0.8V8.9
		C12.1,9,13.2,9,14.6,9c1.4,0,3.1-0.1,3.6-0.1l12.5,26.6l11-26.6C43.1,9,44.5,9,45.8,9C47.2,9,48.6,9,50,8.9v1.4h-0.6
		c-2.1,0-3.5,0.5-3.5,3.7c0,2.3,0.2,13.7,0.3,20.5c0,4.5,0.5,5.3,3.2,5.3h0.9v1.4c-1.5,0-3.4-0.1-5.8-0.1c-2.4,0-4.3,0.1-5.9,0.1
		v-1.4h0.7c2.5,0,3-0.8,3-4.8V12.2h-0.1L30.1,41.6h-1L16.6,14.8h-0.1v18.6c0,4.9,0.4,6.4,2.9,6.4H20v1.4c-1.1,0-2.8-0.1-4.8-0.1
		c-2,0-3.5,0.1-4.8,0.1V39.8z"/>
	<path fill="#712D3D" d="M77.3,21.4h-0.6c-1-1.9-2.7-5.6-9.7-5.6c-7.5,0-9.9,6.9-9.9,12.4c0,8.8,6.3,11.9,10.1,11.9
		c5.8,0,8.5-3.3,10.2-5.5h0.3v2.8c-1.3,1.2-4.4,4.2-10.2,4.2c-8.4,0-14.1-5.3-14.1-12.8c0-7.2,5-14.6,13.8-14.6
		c3.7,0,7.2,1.1,8.5,1.6c0.7,0.2,1.4,0.5,1.9,0.5L77.3,21.4z"/>
	<path fill="#712D3D" d="M111.8,17H111c-1.2-2.4-3.4-6.8-11.9-6.8c-9.2,0-12.1,8.5-12.1,15.1c0,10.8,7.7,14.5,12.4,14.5
		c7.1,0,10.4-4,12.5-6.7h0.3v3.4c-1.6,1.5-5.4,5.2-12.5,5.2c-10.3,0-17.3-6.5-17.3-15.6c0-8.7,6.1-17.8,16.9-17.8
		c4.5,0,8.8,1.4,10.4,1.9c0.9,0.3,1.7,0.6,2.3,0.6L111.8,17z"/>
	<path fill="#712D3D" d="M130.7,14.3c7.4,0,13.8,6,13.8,13.7c0,6.5-5,13.7-13.9,13.7c-8,0-13.8-6-13.8-13.4
		C116.8,20,123.4,14.3,130.7,14.3z M130.6,15.8c-5.2,0-10.1,3.2-10.1,11.8c0,6,3.9,12.6,10.3,12.6c6.9,0,10-5,10-11.9
		C140.9,22.4,137.1,15.8,130.6,15.8z"/>
	<path fill="#712D3D" d="M146.8,40h0.7c1.7,0,2.4-0.6,2.4-3V18.9c0-2.4-0.7-3-2.4-3h-0.7v-1.1c1.3,0,3.1,0.1,4.7,0.1
		c2.5,0,4.3-0.1,5.9-0.1c6.6,0,7.7,5.2,7.7,6.9c0,4.9-3.4,6.3-5.3,6.9l5,8.2c2,3.3,2.6,3.6,5.6,3.7v0.8c-0.7,0-1.4,0-2.1,0
		c-3.3,0-4.8-0.4-6.7-3.6l-4.3-7.1c-0.9-1.4-1.3-1.4-4.2-1.5v7c0,3.5,0.6,3.9,2.1,3.9h1.1v1.1c-1.6,0-3.2-0.1-4.8-0.1
		c-1.7,0-3.4,0.1-4.7,0.1V40z M153.2,27.4c0.6,0.2,1.6,0.3,2.5,0.3c3.3,0,6.1-1.5,6.1-5.4c0-1.6-1.1-6.2-6.3-6.2
		c-0.9,0-1.6,0.1-2.3,0.2V27.4z"/>
	<path fill="#712D3D" d="M173.3,40h0.7c1.8,0,2.4-0.9,2.6-5.4c0.1-5.2,0.4-10.3,0.4-15.7c0-2.5-0.7-3-2.7-3h-0.7v-1.1
		c1.1,0,2,0.1,3.2,0.1c1.1,0,2.5-0.1,3-0.1l10.2,21.8l9-21.8c1.2,0,2.3,0.1,3.4,0.1c1.1,0,2.3-0.1,3.4-0.1v1.1h-0.5
		c-1.7,0-2.9,0.4-2.9,3c0,1.9,0.1,11.2,0.2,16.8c0,3.7,0.4,4.3,2.6,4.3h0.7v1.1c-1.2,0-2.8-0.1-4.7-0.1c-1.9,0-3.6,0.1-4.8,0.1V40
		h0.6c2.1,0,2.5-0.7,2.5-3.9V17.4h-0.1l-9.9,24.1h-0.8l-10.2-21.9h-0.1v15.2c0,4,0.3,5.3,2.4,5.3h0.5v1.1c-0.9,0-2.3-0.1-3.9-0.1
		c-1.6,0-2.9,0.1-4,0.1V40z"/>
	<path fill="#712D3D" d="M208.6,40h0.4c2,0,2.9-0.9,4-4l8.5-22.3h0.7l9.5,22.7c0.9,2.1,2,3.6,3.7,3.6h0.8v1.1
		c-1.4-0.1-3.1-0.1-5-0.1c-2,0-3.7,0-5.1,0.1V40h0.9c1.2,0,1.9-0.4,1.9-1.2c0-0.5-0.4-1.5-0.5-1.9l-2.7-6.7h-8.6l-2,5.9
		c-0.3,0.7-0.6,1.9-0.6,2.7c0,0.7,0.4,1.2,1.5,1.2h0.8v1.1c-1.3-0.1-2.8-0.1-4.6-0.1c-1.4,0-2.8,0-3.7,0.1V40z M221,18.7l-3.4,10.2
		h7.6L221,18.7z"/>
	<path fill="#712D3D" d="M260.6,21.4h-0.6c-1-1.9-2.7-5.6-9.7-5.6c-7.5,0-9.9,6.9-9.9,12.4c0,8.8,6.3,11.9,10.1,11.9
		c5.8,0,8.5-3.3,10.2-5.5h0.3v2.8c-1.3,1.2-4.4,4.2-10.2,4.2c-8.4,0-14.1-5.3-14.1-12.8c0-7.2,5-14.6,13.8-14.6
		c3.7,0,7.2,1.1,8.5,1.6c0.7,0.2,1.4,0.5,1.9,0.5L260.6,21.4z"/>
	<path fill="#712D3D" d="M264.7,40h0.7c1.7,0,2.4-0.6,2.4-3V18.9c0-2.4-0.7-3-2.4-3h-0.7v-1.1c1.3,0,3.1,0.1,4.7,0.1
		c1.6,0,3.2-0.1,4.8-0.1v1.1h-1.1c-1.5,0-2.1,0.4-2.1,3.9v8.7l8.1-9c0.4-0.4,1.8-1.9,1.8-2.6c0-0.7-0.5-1-1.2-1h-0.7v-1.1
		c1.4,0,2.9,0.1,4.4,0.1c1.5,0,2.9-0.1,4.4-0.1v1.1h-0.7c-1.8,0-2.4,0.3-4.6,2.6l-7.2,7.5l9.6,11.2c2.1,2.4,3.2,2.8,4.7,2.8h0.6v1.1
		c-1.2,0-2.4-0.1-3.6-0.1c-1.2,0-2.4,0.1-3.6,0.1c-0.2-1.1-0.3-1.6-2.4-4l-7.6-8.7l-1.9,2v5.7c0,3.5,0.6,3.9,2.1,3.9h1.1v1.1
		c-1.6,0-3.2-0.1-4.8-0.1c-1.7,0-3.4,0.1-4.7,0.1V40z"/>
	<path fill="#712D3D" d="M10.7,84.4h0.8c2.1,0,3-0.8,3-3.7V58.6c0-2.9-0.9-3.7-3-3.7h-0.8v-1.4c1.6,0,3.8,0.1,5.8,0.1
		c1.8,0,4.5-0.1,6.8-0.1c4.5,0,9.5,1.3,9.5,7.4c0,3.8-2,5.8-5.6,7.7v0.1c4,0.6,7.5,3.4,7.5,8.3c0,1.8-0.6,4.7-3.7,6.9
		c-1.8,1.3-3.9,1.9-7.9,1.9c-2.2,0-4.4-0.1-6.6-0.1c-2,0-4.2,0.1-5.8,0.1V84.4z M18.5,67.8c0.9,0.1,1.7,0.2,2.5,0.2
		c2.6,0,8.3-0.2,8.3-5.4c0-5.6-3.9-7.6-7.6-7.6c-3.1,0-3.3,0.7-3.3,2.2V67.8z M18.5,80c0,2.2,0.6,4.3,4.6,4.3c4.8,0,7.6-2.1,7.6-6
		c0-2.4-0.9-5.1-3.5-6.9c-2.1-1.4-4-1.6-6.2-1.6c-1.1,0-1.9,0-2.5,0.2V80z"/>
	<path fill="#712D3D" d="M36,84.6h0.4c2,0,2.9-0.9,4-4l8.5-22.3h0.7L59.1,81c0.9,2.2,2,3.6,3.7,3.6h0.8v1.1c-1.4-0.1-3.1-0.1-5-0.1
		c-2,0-3.7,0-5.1,0.1v-1.1h0.9c1.2,0,1.9-0.4,1.9-1.2c0-0.5-0.4-1.5-0.5-1.9l-2.7-6.7h-8.6l-2,5.9c-0.3,0.7-0.6,1.9-0.6,2.7
		c0,0.7,0.4,1.2,1.5,1.2h0.8v1.1c-1.3-0.1-2.8-0.1-4.6-0.1c-1.4,0-2.8,0-3.7,0.1V84.6z M48.4,63.4l-3.4,10.2h7.6L48.4,63.4z"/>
	<path fill="#712D3D" d="M66.2,84.6h0.7c1.7,0,2.4-0.6,2.4-3V63.5c0-2.4-0.7-3-2.4-3h-0.7v-1.1c1.3,0,3.1,0.1,4.7,0.1
		c2.5,0,4.3-0.1,5.9-0.1c6.6,0,7.7,5.2,7.7,6.9c0,4.9-3.4,6.3-5.3,6.9l5,8.2c2,3.3,2.6,3.6,5.6,3.7v0.8c-0.7,0-1.4,0-2.1,0
		c-3.3,0-4.8-0.4-6.7-3.6l-4.3-7.1c-0.9-1.4-1.3-1.4-4.2-1.5v7c0,3.5,0.6,3.9,2.1,3.9h1.1v1.1c-1.6,0-3.2-0.1-4.8-0.1
		c-1.7,0-3.4,0.1-4.7,0.1V84.6z M72.6,72c0.6,0.2,1.6,0.3,2.5,0.3c3.3,0,6.1-1.5,6.1-5.4c0-1.6-1.1-6.2-6.3-6.2
		c-0.9,0-1.6,0.1-2.3,0.2V72z"/>
	<path fill="#712D3D" d="M104.3,58.9c7.4,0,13.8,6,13.8,13.7c0,6.5-5,13.7-13.9,13.7c-8,0-13.8-6-13.8-13.4
		C90.4,64.6,97,58.9,104.3,58.9z M104.2,60.4c-5.2,0-10.1,3.2-10.1,11.8c0,6,3.9,12.6,10.3,12.6c6.9,0,10-5,10-11.9
		C114.4,67,110.7,60.4,104.2,60.4z"/>
	<path fill="#712D3D" d="M120.3,84.6h0.6c2,0,2.3-0.8,2.4-4.7c0.1-4.9,0.2-11.9,0.2-16.2c0-2.7-0.8-3.2-2.7-3.2h-1v-1.1
		c1,0,2.1,0.1,3.3,0.1c1,0,2-0.1,2.9-0.1l17.5,21.5h0.1l-0.2-15.2c-0.1-4.3-0.6-5.2-2.6-5.2h-0.4v-1.1c1.1,0,2.6,0.1,4,0.1
		c1.3,0,2.7-0.1,4-0.1v1.1h-0.6c-1.2,0-2.2,0.4-2.3,4l-0.7,21.6h-1.1l-18.4-22.5H125c0,5.7,0.1,11.5,0.2,17.2c0.1,3,0.7,3.9,2.4,3.9
		h0.7v1.1c-1.2,0-2.7-0.1-4.1-0.1c-1.4,0-2.9,0.1-4.1,0.1V84.6z"/>
	<path fill="#712D3D" d="M30.3,106.4h-1.5c0-1.5-0.4-7.1-7.2-7.1c-3.8,0-6.2,2.4-6.2,5.3c0,2.6,1.4,4.5,5.1,6.2l4.2,1.9
		c3.3,1.5,6.8,3.9,6.8,8.5c0,5.7-3.7,9.8-11.3,9.8c-0.7,0-4.7,0-8.1-1.1l-0.2-7.4h1.4c0.4,4.2,3.9,7,7.7,7c3.9,0,7.2-2.4,7.2-6.2
		c0-4-3.1-5.5-5.7-6.7l-4.9-2.3c-3.4-1.6-5.8-4.1-5.8-7.8c0-4.7,4-8.9,10.1-8.9c2.9,0,5.7,0.7,8.5,1.2V106.4z"/>
	<path fill="#712D3D" d="M32.6,129.3h0.4c2,0,2.9-0.9,4-4l8.5-22.3h0.7l9.5,22.7c0.9,2.1,2,3.6,3.7,3.6h0.8v1.1
		c-1.4-0.1-3.1-0.1-5-0.1c-2,0-3.7,0-5.1,0.1v-1.1h0.9c1.2,0,1.9-0.4,1.9-1.2c0-0.5-0.4-1.5-0.5-1.9l-2.7-6.7h-8.6l-2,5.9
		c-0.3,0.7-0.6,1.9-0.6,2.7c0,0.7,0.4,1.2,1.5,1.2h0.8v1.1c-1.3-0.1-2.8-0.1-4.6-0.1c-1.4,0-2.8,0-3.7,0.1V129.3z M45,108l-3.4,10.2
		h7.6L45,108z"/>
	<path fill="#712D3D" d="M62.2,129.3h0.7c1.7,0,2.4-0.6,2.4-3v-18.1c0-2.4-0.7-3-2.4-3h-0.7V104c1.3,0,3.1,0.1,4.7,0.1
		c1.6,0,3.2-0.1,4.9-0.1v1.1H71c-1.7,0-2.4,0.6-2.4,3v17.2c0,2.8,0.6,3.7,5.2,3.7c6.1,0,6.8-1.1,7.5-5.3h1.1l-0.2,6.6
		c-3.3,0-7.4-0.1-10.7-0.1c-4.3,0-7.9,0.1-9.2,0.1V129.3z"/>
	<path fill="#712D3D" d="M84.1,129.3h0.4c2,0,2.9-0.9,4-4l8.5-22.3h0.7l9.5,22.7c0.9,2.1,2,3.6,3.7,3.6h0.8v1.1
		c-1.4-0.1-3.1-0.1-5-0.1c-2,0-3.7,0-5.1,0.1v-1.1h0.9c1.2,0,1.9-0.4,1.9-1.2c0-0.5-0.4-1.5-0.5-1.9l-2.7-6.7h-8.6l-2,5.9
		c-0.3,0.7-0.6,1.9-0.6,2.7c0,0.7,0.4,1.2,1.5,1.2h0.8v1.1c-1.3-0.1-2.8-0.1-4.6-0.1c-1.4,0-2.8,0-3.7,0.1V129.3z M96.5,108
		l-3.4,10.2h7.6L96.5,108z"/>
	<path fill="#712D3D" d="M115.2,104c3.6,0,7.3,0.1,10.9,0.1c3.6,0,7.3-0.1,10.9-0.1v0.6l-18.2,24.3h3.9c11.4,0,12.4-0.9,12.7-4.7
		h0.8v6.3c-3.7,0-7.3-0.1-11-0.1c-3.7,0-7.4,0.1-11,0.1v-0.6l17.9-24.3h-8.5c-6.1,0-7.5,1.6-7.5,4.5h-1V104z"/>
	<path fill="#712D3D" d="M139.1,129.3h0.4c2,0,2.9-0.9,4-4l8.5-22.3h0.7l9.5,22.7c0.9,2.1,2,3.6,3.7,3.6h0.8v1.1
		c-1.4-0.1-3.1-0.1-5-0.1c-2,0-3.7,0-5.1,0.1v-1.1h0.9c1.2,0,1.9-0.4,1.9-1.2c0-0.5-0.4-1.5-0.5-1.9l-2.7-6.7h-8.6l-2,5.9
		c-0.3,0.7-0.6,1.9-0.6,2.7c0,0.7,0.4,1.2,1.5,1.2h0.8v1.1c-1.3-0.1-2.8-0.1-4.6-0.1c-1.4,0-2.8,0-3.7,0.1V129.3z M151.6,108
		l-3.4,10.2h7.6L151.6,108z"/>
	<path fill="#712D3D" d="M169,129.3h0.7c1.7,0,2.4-0.6,2.4-3v-18.1c0-2.4-0.7-3-2.4-3H169V104c1.3,0,3.1,0.1,4.7,0.1
		c2.5,0,4.3-0.1,5.9-0.1c6.6,0,7.7,5.2,7.7,6.9c0,4.9-3.4,6.3-5.3,6.9l5,8.2c2,3.3,2.6,3.6,5.6,3.7v0.8c-0.7,0-1.4,0-2.1,0
		c-3.3,0-4.8-0.4-6.7-3.6l-4.3-7.1c-0.9-1.4-1.3-1.4-4.2-1.5v7c0,3.5,0.6,3.9,2.1,3.9h1.1v1.1c-1.6,0-3.2-0.1-4.8-0.1
		c-1.7,0-3.4,0.1-4.7,0.1V129.3z M175.4,116.7c0.6,0.2,1.6,0.3,2.5,0.3c3.3,0,6.1-1.5,6.1-5.4c0-1.6-1.1-6.2-6.3-6.2
		c-0.9,0-1.6,0.1-2.3,0.2V116.7z"/>
</g>
</svg>
