<?xml version="1.0" encoding="utf-8"?>
<!-- Generator: Adobe Illustrator 18.1.1, SVG Export Plug-In . SVG Version: 6.00 Build 0)  -->
<svg version="1.1" id="Layer_1" xmlns="http://www.w3.org/2000/svg" xmlns:xlink="http://www.w3.org/1999/xlink" x="0px" y="0px"
	 viewBox="0 0 18 15.6" enable-background="new 0 0 18 15.6" xml:space="preserve">
<g>
	<g>
		<path fill="#FFFFFF" d="M14.8,7.7c-1.3-0.9-2.6-1.9-3.9-2.8C10.3,4.5,9.7,4.1,9,3.6c0,0-0.1,0-0.1,0.1C7,5,5.1,6.4,3.2,7.8
			C3.1,7.8,3,7.9,3,8.1c0,2.4,0,4.8,0,7.3c0,0.1,0,0.2,0,0.3c4,0,8,0,12,0c0-0.1,0-0.2,0-0.3c0-2.4,0-4.8,0-7.2
			C15,7.9,15,7.8,14.8,7.7z"/>
		<path fill="#FFFFFF" d="M17.7,6.3c-1.5-1.1-2.9-2.1-4.4-3.2c-0.1-0.1-0.2-0.2-0.2-0.4c0-0.8,0-1.7,0-2.5c0-0.1,0-0.2,0-0.3
			c-0.5,0-0.9,0-1.4,0c0,0.7,0,1.3,0,2c-0.1-0.1-0.2-0.1-0.2-0.2C10.8,1.3,10,0.7,9.2,0.1C9.1,0,9,0,8.8,0.1
			C6.4,1.9,3.9,3.7,1.4,5.5C1,5.8,0.5,6.2,0.1,6.5c0.3,0.4,0.5,0.7,0.8,1.1C0.9,7.6,1,7.5,1,7.5c2.6-1.9,5.2-3.8,7.8-5.7
			c0.1-0.1,0.2-0.1,0.4,0c2.5,1.8,5,3.6,7.4,5.4c0.2,0.1,0.4,0.3,0.5,0.4c0.3-0.4,0.5-0.7,0.8-1.1C17.9,6.4,17.8,6.4,17.7,6.3z"/>
	</g>
</g>
</svg>
